{
    "code": "200",
    "data": {
        "pagination": {
            "page": 1,
            "size": 20,
            "totalPage": 6722,
            "total": 134435,
            "lastPage": false
        },
        "commentList": [
            {
                "skuInfo": [
                    "颜色:升级版静雅黑机身+一个刷头"
                ],
                "frontUserName": "小****哥",
                "frontUserAvatar": null,
                "content": "刚刚收到，严选的东西真心不错满意",
                "createTime": 1582000639028,
                "picList": [
                    "https://yanxuan.nosdn.127.net/503a38a415931be83f57bc340c30c0d8.jpg"
                ],
                "commentReplyVO": null,
                "memberLevel": 5,
                "appendCommentVO": null,
                "star": 5,
                "itemId": 1127007
            },
            {
                "skuInfo": [
                    "颜色:升级版静雅黑机身+一个刷头"
                ],
                "frontUserName": "畅****",
                "frontUserAvatar": "https://yanxuan.nosdn.127.net/d17b5c1e99209d5671ff69da81eacb5e.jpg",
                "content": "好用",
                "createTime": 1587963433091,
                "picList": [
                    "https://yanxuan.nosdn.127.net/3f3df03729c99b43b4564f345d74bbe1.jpg",
                    "https://yanxuan.nosdn.127.net/e400d86a2a9f3c3a40d6852668fbec67.jpg"
                ],
                "commentReplyVO": null,
                "memberLevel": 5,
                "appendCommentVO": null,
                "star": 5,
                "itemId": 1127007
            },
            {
                "skuInfo": [
                    "颜色:升级版象牙白机身+一个刷头"
                ],
                "frontUserName": "y****b",
                "frontUserAvatar": null,
                "content": "这是我买的最满意的电动牙刷，给我家大姑娘买的她非常喜欢，颜值超高电力刷的也非常干净。",
                "createTime": 1605319215173,
                "picList": [
                    "https://yanxuan.nosdn.127.net/3f5e059218d0afe1921caf4b73321bcd.jpg",
                    "https://yanxuan.nosdn.127.net/85025cc866eede81fda94e20d67bea0f.jpg",
                    "https://yanxuan.nosdn.127.net/384ba089c18c6e4a6db28d605709f344.jpg",
                    "https://yanxuan.nosdn.127.net/4c7cca659e802493ca614be6369a40b4.jpg"
                ],
                "commentReplyVO": null,
                "memberLevel": 2,
                "appendCommentVO": {
                    "id": 145093303,
                    "createTime": 1605319604822,
                    "content": "这是我买的最满意的电动牙刷，看看我女儿用的很满意我都想给自己买一支了，有活动在买它买它。",
                    "picList": [
                        "https://yanxuan.nosdn.127.net/c5d40f3b77171c6d323232f91aee3ed0.jpg",
                        "https://yanxuan.nosdn.127.net/5ea6bae6146f5a23a80cd6f225cdc50b.jpg",
                        "https://yanxuan.nosdn.127.net/63bc912ae275571700a2e0db113669af.jpg",
                        "https://yanxuan.nosdn.127.net/c56a48c9527331767c452c8647d33d43.jpg"
                    ],
                    "commentReplyVO": null
                },
                "star": 5,
                "itemId": 1127007
            },
            {
                "skuInfo": [
                    "颜色:升级版黑色刷头2支装"
                ],
                "frontUserName": "",
                "frontUserAvatar": "http://yanxuan.nosdn.127.net/b240a1812a459195f36192003565f5d6",
                "content": "自己有一个，这次给妈妈买的，有三个振动模式感觉比我的高级好多！",
                "createTime": 1583918999372,
                "picList": [
                    "https://yanxuan.nosdn.127.net/31f12a31287d6f4d47d35c4fb8deed28.jpg"
                ],
                "commentReplyVO": null,
                "memberLevel": 2,
                "appendCommentVO": null,
                "star": 5,
                "itemId": 1127007
            },
            {
                "skuInfo": [
                    "颜色:升级版象牙白机身+一个刷头"
                ],
                "frontUserName": "",
                "frontUserAvatar": "http://yanxuan.nosdn.127.net/01e90b3d5c8a0fa2a3fa1fc74b91d83b",
                "content": "618看到搞活动就很心动，正好两种颜色，男朋友和自己正好一人一个颜色，包装很好看，非常好用的一款牙刷，有三个档位，也没有啥噪音，完全可以接受，不得不说，这款牙刷颜值真的很高!质量也得劲。非常满意的一次购物，我很喜欢。",
                "createTime": 1593130977924,
                "picList": [
                    "https://yanxuan.nosdn.127.net/1a38550bf8b3f282060835d01bf957fb.jpg"
                ],
                "commentReplyVO": null,
                "memberLevel": 2,
                "appendCommentVO": null,
                "star": 5,
                "itemId": 1127007
            },
            {
                "skuInfo": [
                    "颜色:升级版象牙白机身+一个刷头"
                ],
                "frontUserName": "ψ****Z",
                "frontUserAvatar": "http://q.qlogo.cn/qqapp/1104949895/1014A8BB8CD17D9AF2AC0E4E9D4E97A9/100",
                "content": "给妈妈买的\uD83C\uDF1D\uD83C\uDF1D起初不想要只用普通牙刷，但是用着还是电动的香，哈哈哈",
                "createTime": 1593961762403,
                "picList": [
                    "https://yanxuan.nosdn.127.net/a7458c79f4d6d69cbcae8ae263968fb2.jpg",
                    "https://yanxuan.nosdn.127.net/b3a95ad96db0f6eb0c0ddb809255580e.jpg"
                ],
                "commentReplyVO": null,
                "memberLevel": 2,
                "appendCommentVO": null,
                "star": 5,
                "itemId": 1127007
            },
            {
                "skuInfo": [
                    "颜色:升级版象牙白机身+一个刷头"
                ],
                "frontUserName": "1****5",
                "frontUserAvatar": "https://yanxuan.nosdn.127.net/4bc177f59fa8ee2222f4f143ab82707e.jpg",
                "content": "第一次用电动牙刷，严选东西就是舒服，没想到这玩意这么喜感…",
                "createTime": 1594543018849,
                "picList": [
                    "https://yanxuan.nosdn.127.net/e05f64d3dfe2355cbe3d858c3072bc5d.jpg"
                ],
                "commentReplyVO": null,
                "memberLevel": 2,
                "appendCommentVO": null,
                "star": 5,
                "itemId": 1127007
            },
            {
                "skuInfo": [
                    "颜色:升级版象牙白机身+一个刷头"
                ],
                "frontUserName": "严****6",
                "frontUserAvatar": "https://yanxuan.nosdn.127.net/6ce1d56b2fba3433c086220093de514b.jpg",
                "content": "挺好用的 刷牙很舒服 送了刷头 应该能用很久 颜色很好看 简洁大气 满意",
                "createTime": 1599048464337,
                "picList": [
                    "https://yanxuan.nosdn.127.net/f94b557e02caf95d8473885249cd368b.jpg",
                    "https://yanxuan.nosdn.127.net/269710969317ab05f327be173e9338a6.jpg"
                ],
                "commentReplyVO": null,
                "memberLevel": 3,
                "appendCommentVO": null,
                "star": 5,
                "itemId": 1127007
            },
            {
                "skuInfo": [
                    "颜色:升级版象牙白机身+一个刷头"
                ],
                "frontUserName": "用****0",
                "frontUserAvatar": null,
                "content": "不错哟，包装的很好，还没舍得拆呢，应该质量不错哟，买给爸爸妈妈的，值得信赖",
                "createTime": 1600345979499,
                "picList": [
                    "https://yanxuan.nosdn.127.net/a53ecb02fe2773098cdf4410848526bd.jpg",
                    "https://yanxuan.nosdn.127.net/8a3c3836ca2f3817ca3ab782a35cb3f8.jpg",
                    "https://yanxuan.nosdn.127.net/b4fa56a057e445a1928ebc934719971d.jpg",
                    "https://yanxuan.nosdn.127.net/d89d967462e3aa3f83731430cb213f00.jpg",
                    "https://yanxuan.nosdn.127.net/dd68d9a2bd36f3f9bd738d6c0169f6b7.jpg"
                ],
                "commentReplyVO": null,
                "memberLevel": 3,
                "appendCommentVO": null,
                "star": 5,
                "itemId": 1127007
            },
            {
                "skuInfo": [
                    "颜色:升级版象牙白机身+一个刷头"
                ],
                "frontUserName": "用****1",
                "frontUserAvatar": null,
                "content": "宝贝收到了，很惊喜，质量非常好，很满意的一次购物。我会继续回购的，店家值得信赖",
                "createTime": 1604655332216,
                "picList": [
                    "https://yanxuan.nosdn.127.net/a7b32db90c43174c3ac6692003646d13.jpg",
                    "https://yanxuan.nosdn.127.net/a8e71bf9a22f69903df4356920d24eb4.jpg",
                    "https://yanxuan.nosdn.127.net/b4264babc1cda457b884d94abd3783e5.jpg",
                    "https://yanxuan.nosdn.127.net/aef0f157e8e61feff07913443a5a46a2.jpg",
                    "https://yanxuan.nosdn.127.net/9545df9288a81a5f78b07aaf89f0bad5.jpg"
                ],
                "commentReplyVO": null,
                "memberLevel": 4,
                "appendCommentVO": null,
                "star": 5,
                "itemId": 1127007
            },
            {
                "skuInfo": [
                    "颜色:升级版象牙白机身+一个刷头"
                ],
                "frontUserName": "t****)",
                "frontUserAvatar": "https://yanxuan.nosdn.127.net/860cf39bb71086549c32fe416ae7c80e",
                "content": "物流很快很给力，质量很不错，物美价廉，卖家服务态度很好，耐心，热情，很赞！下次还来！",
                "createTime": 1606006637894,
                "picList": [
                    "https://yanxuan.nosdn.127.net/5bda1b77a699100c942856fc6fe3af61.jpg",
                    "https://yanxuan.nosdn.127.net/44456156301e2d216007f59611a04086.jpg",
                    "https://yanxuan.nosdn.127.net/f504f7204ac9a99b52a68742e108808e.jpg",
                    "https://yanxuan.nosdn.127.net/3ca684dff372d854f877f05ba5c773ab.jpg"
                ],
                "commentReplyVO": null,
                "memberLevel": 4,
                "appendCommentVO": null,
                "star": 5,
                "itemId": 1127007
            },
            {
                "skuInfo": [
                    "颜色:升级版静雅黑机身+一个刷头"
                ],
                "frontUserName": "用****1",
                "frontUserAvatar": null,
                "content": "物流超快上午9点下的单，晚上9点多就送货上门了，赞，有三种模式：清洁，亮白，按摩",
                "createTime": 1599841945258,
                "picList": [
                    "https://yanxuan.nosdn.127.net/9acf8ca5e66b0e1aa723d94630035223.jpg"
                ],
                "commentReplyVO": null,
                "memberLevel": 2,
                "appendCommentVO": null,
                "star": 5,
                "itemId": 1127007
            },
            {
                "skuInfo": [
                    "颜色:升级版象牙白机身+一个刷头"
                ],
                "frontUserName": "严****7",
                "frontUserAvatar": null,
                "content": "包装精细，专业，虽未使用，一看品质就有保障，首单严选购物成功，希望会有更多惊喜。",
                "createTime": 1597407244198,
                "picList": [
                    "https://yanxuan.nosdn.127.net/c25e946d641f3e0c2af7d8d2b46b5ac4.jpg",
                    "https://yanxuan.nosdn.127.net/7ab41a38e5e834c6a5cb3441370ebda2.jpg",
                    "https://yanxuan.nosdn.127.net/466fa42f2b93552c74c04e005cc906c4.jpg",
                    "https://yanxuan.nosdn.127.net/35457c01a4eadd942e549406da454b12.jpg",
                    "https://yanxuan.nosdn.127.net/3cfbb3e2f6720228c6ab9fedbca44bb4.jpg"
                ],
                "commentReplyVO": null,
                "memberLevel": 3,
                "appendCommentVO": null,
                "star": 5,
                "itemId": 1127007
            },
            {
                "skuInfo": [
                    "颜色:升级版黑色刷头2支装"
                ],
                "frontUserName": "1****6",
                "frontUserAvatar": null,
                "content": "很好一直用这次买了还想再买，现在就买。",
                "createTime": 1606990529128,
                "picList": [
                    "https://yanxuan.nosdn.127.net/252f301c30724c3edab810e591e16a2d.jpg",
                    "https://yanxuan.nosdn.127.net/54bf5abd19aa3815fcc0c38a87ac5722.jpg",
                    "https://yanxuan.nosdn.127.net/67a8b78861f37d33c1ccb14d80eee895.jpg"
                ],
                "commentReplyVO": null,
                "memberLevel": 2,
                "appendCommentVO": null,
                "star": 5,
                "itemId": 1127007
            },
            {
                "skuInfo": [
                    "颜色:升级版象牙白机身+一个刷头"
                ],
                "frontUserName": "严****7",
                "frontUserAvatar": null,
                "content": "用着感觉不错，三档可调，可以跟飞利浦媲美，性价比很高！",
                "createTime": 1597796241758,
                "picList": [
                    "https://yanxuan.nosdn.127.net/aaa470c7971b9d8fba3782a95dc4d87d.jpg"
                ],
                "commentReplyVO": null,
                "memberLevel": 2,
                "appendCommentVO": null,
                "star": 5,
                "itemId": 1127007
            },
            {
                "skuInfo": [
                    "颜色:象牙白机身+一个刷头"
                ],
                "frontUserName": "m****1",
                "frontUserAvatar": "https://yanxuan.nosdn.127.net/c4cce781f313a5db2b76d255b32d73fe.jpg",
                "content": "很不错，外观颜值不错，振动很强烈，还会再买，谢谢",
                "createTime": 1603965877609,
                "picList": [
                    "https://yanxuan.nosdn.127.net/eeafca9fab60bdc7383304d15e9ce0b3.jpg",
                    "https://yanxuan.nosdn.127.net/07ba8f15481b0f4f442c9e9600ba8b24.jpg"
                ],
                "commentReplyVO": null,
                "memberLevel": 3,
                "appendCommentVO": null,
                "star": 5,
                "itemId": 1127007
            },
            {
                "skuInfo": [
                    "颜色:升级版静雅黑机身+一个刷头"
                ],
                "frontUserName": "1****8",
                "frontUserAvatar": null,
                "content": "外包装非常精美！在网易严选购买的物品总是让人满意！非常满意！",
                "createTime": 1600152760585,
                "picList": [
                    "https://yanxuan.nosdn.127.net/681f19756cd114c980b542e84f8f7564.jpg"
                ],
                "commentReplyVO": null,
                "memberLevel": 3,
                "appendCommentVO": null,
                "star": 5,
                "itemId": 1127007
            },
            {
                "skuInfo": [
                    "颜色:升级版白色刷头2支装"
                ],
                "frontUserName": "o****4",
                "frontUserAvatar": null,
                "content": "包装精美，样式美观，质量上乘，值得拥有！",
                "createTime": 1606739737085,
                "picList": [
                    "https://yanxuan.nosdn.127.net/1c3032b54b44bd5191164ad610cd4d4d.jpg",
                    "https://yanxuan.nosdn.127.net/8330c24a93a758e7e989f0f505c1c671.jpg"
                ],
                "commentReplyVO": null,
                "memberLevel": 3,
                "appendCommentVO": null,
                "star": 5,
                "itemId": 1127007
            },
            {
                "skuInfo": [
                    "颜色:升级版静雅黑机身+一个刷头"
                ],
                "frontUserName": "用****5",
                "frontUserAvatar": null,
                "content": "风格极简却又不失质感，颜值很高的一款牙刷，柄身后面作有防滑处理，细节好评，支持三档模式，照顾不同用户，试用震感强烈，四小时快充底座，非常满意的一次购物",
                "createTime": 1605878371519,
                "picList": [
                    "https://yanxuan.nosdn.127.net/b85428a8c937bd305d3e53d498319566.jpg",
                    "https://yanxuan.nosdn.127.net/e39a947750294c5ff0c7e61c06166394.jpg",
                    "https://yanxuan.nosdn.127.net/93f5d315ce71084ad6d5f18ce12b2068.jpg",
                    "https://yanxuan.nosdn.127.net/af2bf90d2ede43ab71957756795a04af.jpg"
                ],
                "commentReplyVO": null,
                "memberLevel": 2,
                "appendCommentVO": null,
                "star": 5,
                "itemId": 1127007
            },
            {
                "skuInfo": [
                    "颜色:升级版象牙白机身+一个刷头"
                ],
                "frontUserName": "w****t",
                "frontUserAvatar": "https://yanxuan.nosdn.127.net/2ba1e0f4c887c96f1adfc13db1af3d13.jpg",
                "content": "包装很好 不愧是网易严选 买了很多次网易严选的产品了 质量这方面没得说 牙刷颜值很高 刷的也很干净 这个震动的频率三档挺有意思的 像music一样 哈哈 爆赞",
                "createTime": 1603210429869,
                "picList": [
                    "https://yanxuan.nosdn.127.net/cef9394dd0c8806cdc82d0edaec24636.jpg",
                    "https://yanxuan.nosdn.127.net/b73eabc97504a9505bdf18f19d2ac1c8.jpg"
                ],
                "commentReplyVO": null,
                "memberLevel": 3,
                "appendCommentVO": null,
                "star": 5,
                "itemId": 1127007
            }
        ],
        "lastCommentPage": 6722,
        "relatedItemCommentTag": null,
        "relatedItemCommentList": null
    }
}